Map top left     = -863.699036, 640.421814
Map top right    =  863.266785, 638.782532
Map bottom left  = -864.788757,-440.649933
Map bottom right =  860.913574,-436.562775

Map top left     = -864, 640
Map top right    =  864, 640
Map bottom left  = -864,-438
Map bottom right =  864,-438

x range = 1728
y range = 1078

Map top left     = 0, 0
Map top right    = width, 0
Map bottom left  = 0, height
Map bottom right = width, height

width = 132
height = 85

x = x / 13 + 66
y = y / 12.6823529 + 35