^H:\UNI WORK\STAGE 3\CSC3224 - COMPUTER GAMES DEVELOPMENT\CSC3224-COMPUTER_GAMES_DEVELOPMENT\XLENGINE\SOIL\SIMPLE OPENGL IMAGE LIBRARY\SRC\IMAGE_DXT.C
/c /Zi /nologo /W3 /WX- /diagnostics:classic /O2 /Oy- /GL /D WIN32 /D NDEBUG /D _LIB /D _UNICODE /D UNICODE /Gm- /EHsc /MD /GS /fp:precise /Zc:wchar_t /Zc:forScope /Zc:inline /Fo"RELEASE\\" /Fd"RELEASE\SOIL.PDB" /Gd /TC /analyze- H:\UNI WORK\STAGE 3\CSC3224 - COMPUTER GAMES DEVELOPMENT\CSC3224-COMPUTER_GAMES_DEVELOPMENT\XLENGINE\SOIL\SIMPLE OPENGL IMAGE LIBRARY\SRC\IMAGE_DXT.C
^H:\UNI WORK\STAGE 3\CSC3224 - COMPUTER GAMES DEVELOPMENT\CSC3224-COMPUTER_GAMES_DEVELOPMENT\XLENGINE\SOIL\SIMPLE OPENGL IMAGE LIBRARY\SRC\IMAGE_HELPER.C
/c /Zi /nologo /W3 /WX- /diagnostics:classic /O2 /Oy- /GL /D WIN32 /D NDEBUG /D _LIB /D _UNICODE /D UNICODE /Gm- /EHsc /MD /GS /fp:precise /Zc:wchar_t /Zc:forScope /Zc:inline /Fo"RELEASE\\" /Fd"RELEASE\SOIL.PDB" /Gd /TC /analyze- H:\UNI WORK\STAGE 3\CSC3224 - COMPUTER GAMES DEVELOPMENT\CSC3224-COMPUTER_GAMES_DEVELOPMENT\XLENGINE\SOIL\SIMPLE OPENGL IMAGE LIBRARY\SRC\IMAGE_HELPER.C
^H:\UNI WORK\STAGE 3\CSC3224 - COMPUTER GAMES DEVELOPMENT\CSC3224-COMPUTER_GAMES_DEVELOPMENT\XLENGINE\SOIL\SIMPLE OPENGL IMAGE LIBRARY\SRC\SOIL.C
/c /Zi /nologo /W3 /WX- /diagnostics:classic /O2 /Oy- /GL /D WIN32 /D NDEBUG /D _LIB /D _UNICODE /D UNICODE /Gm- /EHsc /MD /GS /fp:precise /Zc:wchar_t /Zc:forScope /Zc:inline /Fo"RELEASE\\" /Fd"RELEASE\SOIL.PDB" /Gd /TC /analyze- H:\UNI WORK\STAGE 3\CSC3224 - COMPUTER GAMES DEVELOPMENT\CSC3224-COMPUTER_GAMES_DEVELOPMENT\XLENGINE\SOIL\SIMPLE OPENGL IMAGE LIBRARY\SRC\SOIL.C
^H:\UNI WORK\STAGE 3\CSC3224 - COMPUTER GAMES DEVELOPMENT\CSC3224-COMPUTER_GAMES_DEVELOPMENT\XLENGINE\SOIL\SIMPLE OPENGL IMAGE LIBRARY\SRC\STB_IMAGE_AUG.C
/c /Zi /nologo /W3 /WX- /diagnostics:classic /O2 /Oy- /GL /D WIN32 /D NDEBUG /D _LIB /D _UNICODE /D UNICODE /Gm- /EHsc /MD /GS /fp:precise /Zc:wchar_t /Zc:forScope /Zc:inline /Fo"RELEASE\\" /Fd"RELEASE\SOIL.PDB" /Gd /TC /analyze- H:\UNI WORK\STAGE 3\CSC3224 - COMPUTER GAMES DEVELOPMENT\CSC3224-COMPUTER_GAMES_DEVELOPMENT\XLENGINE\SOIL\SIMPLE OPENGL IMAGE LIBRARY\SRC\STB_IMAGE_AUG.C
